module gitlab.com/oz_wonderland/locker

go 1.16

require (
	github.com/therecipe/env_darwin_amd64_513 v0.0.0-20190626001412-d8e92e8db4d0 // indirect
	github.com/therecipe/env_linux_amd64_513 v0.0.0-20190626000307-e137a3934da6 // indirect
	github.com/therecipe/env_windows_amd64_513 v0.0.0-20190626000028-79ec8bd06fb2 // indirect
	github.com/therecipe/env_windows_amd64_513/Tools v0.0.0-20190626000028-79ec8bd06fb2 // indirect
	github.com/therecipe/qt v0.0.0-20200904063919-c0c124a5770d
	github.com/therecipe/qt/internal/binding/files/docs/5.12.0 v0.0.0-20200904063919-c0c124a5770d // indirect
	github.com/therecipe/qt/internal/binding/files/docs/5.13.0 v0.0.0-20200904063919-c0c124a5770d // indirect
	go.uber.org/zap v1.16.0
	gorm.io/driver/postgres v1.0.8
	gorm.io/gorm v1.21.6
)
